<?xml version="1.0" encoding="utf-8"?>
<!-- Generator: Adobe Illustrator 15.0.0, SVG Export Plug-In . SVG Version: 6.00 Build 0)  -->
<!DOCTYPE svg PUBLIC "-//W3C//DTD SVG 1.1//EN" "http://www.w3.org/Graphics/SVG/1.1/DTD/svg11.dtd">
<svg version="1.1" id="Layer_1" xmlns="http://www.w3.org/2000/svg" xmlns:xlink="http://www.w3.org/1999/xlink" x="0px" y="0px"
	 width="193px" height="218.7px" viewBox="0 0 193 218.7" style="enable-background:new 0 0 193 218.7;" xml:space="preserve">
<g>
	<path style="fill:#12B24B;" d="M96.5,193C43.3,193,0,149.7,0,96.5C0,43.3,43.3,0,96.5,0C149.7,0,193,43.3,193,96.5
		C193,149.7,149.7,193,96.5,193z M96.5,5C46.1,5,5,46.1,5,96.5C5,147,46.1,188,96.5,188C147,188,188,147,188,96.5
		C188,46.1,147,5,96.5,5z"/>
	<rect x="94" y="190.1" style="fill:#12B24B;" width="5" height="28.6"/>
	<path style="fill:#12B24B;" d="M77.8,113.6c0.6,0.1,1.3,0.1,1.9,0.2c1.5,0.1,2.8,0.8,3.7,2c5.8,7.6,8.5,16.9,8.1,26.1
		c6.5-6.9,9.2-16.5,7.2-25.9c-0.5-2.4,0.8-4.9,3.1-5.8c7.5-2.9,14.2-7.3,19.9-13C134,85,140.1,68.4,138.3,53.1
		c-15.4-1.8-32,4.4-44.1,16.4c-5.7,5.7-10.1,12.4-13,19.9c-0.9,2.3-3.3,3.6-5.8,3.1c-9.3-1.9-19.1,0.8-25.9,7.2
		c9.2-0.4,18.6,2.5,26.1,8.1c1.2,0.9,1.9,2.2,2,3.7C77.7,112.3,77.8,112.9,77.8,113.6 M83.9,158.3c-1.3,0-2.6-0.5-3.6-1.5
		c-1.5-1.5-1.9-3.7-1.1-5.6c3.8-9,2.8-19.3-2.6-27.5c-1.5-0.2-2.9-0.4-4.2-0.6c-2-0.4-3.6-2-4-4c-0.3-1.3-0.5-2.7-0.6-4.3
		c-8.1-5.3-18.8-6.3-27.5-2.6c-1.9,0.8-4.1,0.4-5.6-1.1c-1.5-1.5-1.9-3.7-1.1-5.6c2-4.7,4.8-8.8,8.3-12.4
		c8.3-8.3,19.8-12.4,31.5-11.2c3.4-7.3,8-13.9,13.7-19.6c12.5-12.5,29.2-19.7,45.8-19.7c3.7,0,7.3,0.4,10.9,1.1c2,0.4,3.6,2,4,4
		c3.9,19.6-3.2,41.3-18.7,56.7c-5.7,5.7-12.3,10.3-19.6,13.7c1.2,11.7-2.9,23.2-11.2,31.5c-3.5,3.5-7.7,6.3-12.4,8.3
		C85.2,158.2,84.5,158.3,83.9,158.3"/>
	<path style="fill:#12B24B;" d="M116.1,67.6c-2,0-4,0.8-5.4,2.2c-3,3-3,7.8,0,10.8c2.9,2.9,7.9,2.9,10.8,0c1.4-1.4,2.2-3.4,2.2-5.4
		c0-2-0.8-4-2.2-5.4C120.1,68.4,118.1,67.6,116.1,67.6 M116.1,88c-3.4,0-6.6-1.3-9-3.7c-5-5-5-13.1,0-18c4.8-4.8,13.2-4.8,18,0
		c2.4,2.4,3.7,5.6,3.7,9c0,3.4-1.3,6.6-3.7,9C122.7,86.7,119.5,88,116.1,88"/>
	<path style="fill:#12B24B;" d="M58.2,140.8c-1.7,0-3.4-0.1-5.1-0.4c-1.1-0.2-1.9-1-2.1-2.1c-1.8-10.5,2-21.6,10.2-29.7
		c1-1,2.6-1,3.6,0c1,1,1,2.6,0,3.6c-6.5,6.5-9.8,15.1-9,23.4c8.3,0.8,16.9-2.5,23.4-9c1-1,2.6-1,3.6,0c1,1,1,2.6,0,3.6
		C76,137,67,140.8,58.2,140.8"/>
</g>
</svg>
