<?xml version="1.0" encoding="utf-8"?>
<!-- Generator: Adobe Illustrator 15.0.0, SVG Export Plug-In . SVG Version: 6.00 Build 0)  -->
<!DOCTYPE svg PUBLIC "-//W3C//DTD SVG 1.1//EN" "http://www.w3.org/Graphics/SVG/1.1/DTD/svg11.dtd">
<svg version="1.1" id="Layer_1" xmlns="http://www.w3.org/2000/svg" xmlns:xlink="http://www.w3.org/1999/xlink" x="0px" y="0px"
	 width="148.1px" height="136px" viewBox="0 0 148.1 136" style="enable-background:new 0 0 148.1 136;" xml:space="preserve">
<g>
	<path style="fill:#90BB3E;" d="M111.5,109.7h-54v-83h54V109.7z M61.5,106.7h47v-77h-47V106.7z"/>
	<path style="fill:#90BB3E;" d="M104.5,104.6l-39-5.2V37.7l39-5.2V104.6z M68.5,96.6l34,4.4V36.2l-34,4.4V96.6z"/>
	<rect x="70.3" y="66.2" style="fill:#90BB3E;" width="6.4" height="3.2"/>
	<path style="fill:#90BB3E;" d="M54.5,76.7h-16v-28h16V76.7z M41.5,74.7h10v-23h-10V74.7z"/>
	<g>
		<rect x="44.8" y="55" style="fill:#90BB3E;" width="3.2" height="3.2"/>
	</g>
	<g>
		<rect x="44.8" y="61.4" style="fill:#90BB3E;" width="3.2" height="3.2"/>
	</g>
	<g>
		<rect x="44.8" y="67.8" style="fill:#90BB3E;" width="3.2" height="3.2"/>
	</g>
</g>
</svg>
