<?xml version="1.0" encoding="utf-8"?>
<!-- Generator: Adobe Illustrator 15.0.0, SVG Export Plug-In . SVG Version: 6.00 Build 0)  -->
<!DOCTYPE svg PUBLIC "-//W3C//DTD SVG 1.1//EN" "http://www.w3.org/Graphics/SVG/1.1/DTD/svg11.dtd">
<svg version="1.1" id="Layer_1" xmlns="http://www.w3.org/2000/svg" xmlns:xlink="http://www.w3.org/1999/xlink" x="0px" y="0px"
	 width="148.1px" height="136px" viewBox="0 0 148.1 136" style="enable-background:new 0 0 148.1 136;" xml:space="preserve">
<g>
	<g>
		<g>
			<g>
				<path style="fill:#90BB3E;" d="M54.5,87.4H43.3c-3.5,0-6.4-2.9-6.4-6.4V54c0-0.9,0.7-1.6,1.6-1.6h12.7c0.9,0,1.6,0.7,1.6,1.6
					v24.8l2.7,2.7c0.3,0.3,0.5,0.7,0.5,1.1v3.2C56,86.7,55.3,87.4,54.5,87.4z M40.1,55.6v25.5c0,1.8,1.4,3.2,3.2,3.2h9.6v-0.9
					l-2.7-2.7c-0.3-0.3-0.5-0.7-0.5-1.1V55.6H40.1z"/>
			</g>
			<g>
				<path style="fill:#90BB3E;" d="M54.5,68.3h-3.2v-3.2h1.6V62h-1.6v-3.2h3.2c0.9,0,1.6,0.7,1.6,1.6v6.4
					C56,67.6,55.3,68.3,54.5,68.3z"/>
			</g>
			<g>
				<rect x="43.3" y="58.8" style="fill:#90BB3E;" width="3.2" height="20.7"/>
			</g>
		</g>
		<g>
			<path style="fill:#90BB3E;" d="M68.8,55.6H38.5c-7.9,0-14.3-6.4-14.3-14.3c0-7.9,6.4-14.3,14.3-14.3h36.6c0.4,0,0.8,0.2,1.1,0.5
				l2.7,2.7h12.1v3.2H78.3c-0.4,0-0.8-0.2-1.1-0.5l-2.7-2.7h-36c-6.1,0-11.1,5-11.1,11.1c0,6.1,5,11.1,11.1,11.1h29.8l9.2-6.1
				c0.3-0.2,0.6-0.3,0.9-0.3h12.7v3.2H78.8l-9.1,6.1C69.4,55.5,69.1,55.6,68.8,55.6z"/>
		</g>
		<g>
			<path style="fill:#90BB3E;" d="M103.8,49.2h-9.5v-3.2h8.9l5.4-5.4v-1.9l-5.4-5.4h-8.9v-3.2h9.5c0.4,0,0.8,0.2,1.1,0.5l6.4,6.4
				c0.3,0.3,0.5,0.7,0.5,1.1v3.2c0,0.4-0.2,0.8-0.5,1.1l-6.4,6.4C104.6,49.1,104.2,49.2,103.8,49.2z"/>
		</g>
		<g>
			<rect x="110.2" y="38.1" style="fill:#90BB3E;" width="15.9" height="3.2"/>
		</g>
		<g>
			<path style="fill:#90BB3E;" d="M70.4,36.5H44.9c-0.9,0-1.6-0.7-1.6-1.6v-6.4c0-0.9,0.7-1.6,1.6-1.6h25.5c0.9,0,1.6,0.7,1.6,1.6
				v6.4C72,35.8,71.3,36.5,70.4,36.5z M46.5,33.3h22.3v-3.2H46.5V33.3z"/>
		</g>
		<g>
			<rect x="91.1" y="33.3" style="fill:#90BB3E;" width="3.2" height="12.7"/>
		</g>
		<g>
			<rect x="68.8" y="39.7" style="fill:#90BB3E;" width="3.2" height="3.2"/>
		</g>
		<g>
			<rect x="62.4" y="39.7" style="fill:#90BB3E;" width="3.2" height="3.2"/>
		</g>
		<g>
			<rect x="56" y="39.7" style="fill:#90BB3E;" width="3.2" height="3.2"/>
		</g>
		<g>
			<rect x="83.1" y="31.7" style="fill:#90BB3E;" width="3.2" height="22.3"/>
		</g>
		<g>
			<path style="fill:#90BB3E;" d="M84.7,76.3c-2.6,0-4.8-2.1-4.8-4.8V58.8c0-2.6,2.1-4.8,4.8-4.8c2.6,0,4.8,2.1,4.8,4.8v12.7
				C89.5,74.2,87.3,76.3,84.7,76.3z M84.7,57.2c-0.9,0-1.6,0.7-1.6,1.6v12.7c0,0.9,0.7,1.6,1.6,1.6c0.9,0,1.6-0.7,1.6-1.6V58.8
				C86.3,57.9,85.6,57.2,84.7,57.2z"/>
		</g>
		<g>
			<rect x="78.3" y="52.4" style="fill:#90BB3E;" width="12.7" height="3.2"/>
		</g>
		<g>
			<path style="fill:#90BB3E;" d="M78.3,101.8H54.5c-6.1,0-11.1-5-11.1-11.1v-4.8h3.2v4.8c0,4.4,3.6,8,8,8h23.9V101.8z"/>
		</g>
		<g>
			<path style="fill:#90BB3E;" d="M89.5,109.7h-3.2c0-4.4-3.6-8-8-8v-3.2C84.5,98.6,89.5,103.6,89.5,109.7z"/>
		</g>
		<g>
			<rect x="99" y="31.7" style="fill:#90BB3E;" width="3.2" height="6.4"/>
		</g>
		<g>
			<rect x="99" y="41.3" style="fill:#90BB3E;" width="3.2" height="6.4"/>
		</g>
		<g>
			<path style="fill:#90BB3E;" d="M33.8,41.3h-3.2c0-4.4,3.6-8,8-8v3.2C35.9,36.5,33.8,38.7,33.8,41.3z"/>
		</g>
		<g>
			<rect x="110.2" y="58.8" style="fill:#90BB3E;" width="6.4" height="3.2"/>
		</g>
		<g>
			<rect x="111.8" y="60.4" style="fill:#90BB3E;" width="3.2" height="11.1"/>
		</g>
		<g>
			<rect x="119.7" y="58.8" style="fill:#90BB3E;" width="6.4" height="3.2"/>
		</g>
		<g>
			<rect x="121.3" y="60.4" style="fill:#90BB3E;" width="3.2" height="11.1"/>
		</g>
		<g>
			<rect x="110.2" y="74.7" style="fill:#90BB3E;" width="6.4" height="3.2"/>
		</g>
		<g>
			<rect x="111.8" y="76.3" style="fill:#90BB3E;" width="3.2" height="11.1"/>
		</g>
		<g>
			<rect x="100.6" y="58.8" style="fill:#90BB3E;" width="6.4" height="3.2"/>
		</g>
		<g>
			<rect x="102.2" y="60.4" style="fill:#90BB3E;" width="3.2" height="11.1"/>
		</g>
		<g>
			<rect x="100.6" y="74.7" style="fill:#90BB3E;" width="6.4" height="3.2"/>
		</g>
		<g>
			<rect x="102.2" y="76.3" style="fill:#90BB3E;" width="3.2" height="11.1"/>
		</g>
		<g>
			<rect x="119.7" y="74.7" style="fill:#90BB3E;" width="6.4" height="3.2"/>
		</g>
		<g>
			<rect x="121.3" y="76.3" style="fill:#90BB3E;" width="3.2" height="11.1"/>
		</g>
	</g>
</g>
</svg>
