<?xml version="1.0" encoding="utf-8"?>
<!-- Generator: Adobe Illustrator 15.0.0, SVG Export Plug-In . SVG Version: 6.00 Build 0)  -->
<!DOCTYPE svg PUBLIC "-//W3C//DTD SVG 1.1//EN" "http://www.w3.org/Graphics/SVG/1.1/DTD/svg11.dtd">
<svg version="1.1" id="Layer_1" xmlns="http://www.w3.org/2000/svg" xmlns:xlink="http://www.w3.org/1999/xlink" x="0px" y="0px"
	 width="32.2px" height="134.4px" viewBox="0 0 32.2 134.4" style="enable-background:new 0 0 32.2 134.4;" xml:space="preserve">
<polyline style="fill:none;stroke:#DEDEDD;stroke-width:2;stroke-miterlimit:10;" points="0.9,0.4 31.1,65.4 0.9,134 "/>
</svg>
