<?xml version="1.0" encoding="utf-8"?>
<!-- Generator: Adobe Illustrator 15.0.0, SVG Export Plug-In . SVG Version: 6.00 Build 0)  -->
<!DOCTYPE svg PUBLIC "-//W3C//DTD SVG 1.1//EN" "http://www.w3.org/Graphics/SVG/1.1/DTD/svg11.dtd">
<svg version="1.1" id="Layer_1" xmlns="http://www.w3.org/2000/svg" xmlns:xlink="http://www.w3.org/1999/xlink" x="0px" y="0px"
	 width="32px" height="32px" viewBox="0 0 32 32" style="enable-background:new 0 0 32 32;" xml:space="preserve">
<path style="fill:#7c7c7c;" d="M16,32c-2.2,0-4.3-0.4-6.2-1.3c-1.9-0.8-3.6-2-5.1-3.4c-1.4-1.4-2.6-3.1-3.4-5.1
	C0.4,20.3,0,18.2,0,16c0-2.2,0.4-4.3,1.3-6.2c0.8-1.9,2-3.6,3.4-5.1c1.4-1.5,3.1-2.6,5.1-3.4C11.7,0.4,13.8,0,16,0
	c2.2,0,4.3,0.4,6.2,1.3c1.9,0.8,3.6,2,5.1,3.4c1.4,1.5,2.6,3.2,3.4,5.1c0.8,1.9,1.3,4,1.3,6.2c0,2.2-0.4,4.3-1.3,6.2
	c-0.8,1.9-2,3.6-3.4,5.1c-1.4,1.4-3.1,2.6-5.1,3.4C20.3,31.6,18.2,32,16,32 M11.9,16.6h2.4v7.2h3v-7.2h3v-3h-3v-1.5
	c0-0.2,0.1-0.5,0.2-0.6c0.1-0.2,0.3-0.3,0.4-0.3h2.4V8.3h-2.4c-1,0-1.8,0.4-2.5,1.1c-0.7,0.8-1,1.7-1,2.7v1.5h-2.4V16.6z"/>
</svg>
